<?xml version="1.0" encoding="UTF-8" standalone="no"?>
<!-- Created with Inkscape (http://www.inkscape.org/) -->

<svg
   xmlns:osb="http://www.openswatchbook.org/uri/2009/osb"
   xmlns:dc="http://purl.org/dc/elements/1.1/"
   xmlns:cc="http://creativecommons.org/ns#"
   xmlns:rdf="http://www.w3.org/1999/02/22-rdf-syntax-ns#"
   xmlns:svg="http://www.w3.org/2000/svg"
   xmlns="http://www.w3.org/2000/svg"
   xmlns:xlink="http://www.w3.org/1999/xlink"
   xmlns:sodipodi="http://sodipodi.sourceforge.net/DTD/sodipodi-0.dtd"
   xmlns:inkscape="http://www.inkscape.org/namespaces/inkscape"
   width="744.09448819"
   height="1052.3622047"
   id="svg2"
   version="1.1"
   inkscape:version="0.48.2 r9819"
   sodipodi:docname="caveman.svg">
  <defs
     id="defs4">
    <linearGradient
       id="linearGradient5594">
      <stop
         style="stop-color:#000000;stop-opacity:1;"
         offset="0"
         id="stop5596" />
      <stop
         style="stop-color:#000000;stop-opacity:0;"
         offset="1"
         id="stop5598" />
    </linearGradient>
    <linearGradient
       id="linearGradient5588"
       osb:paint="solid">
      <stop
         style="stop-color:#000000;stop-opacity:1;"
         offset="0"
         id="stop5590" />
    </linearGradient>
    <linearGradient
       id="linearGradient4014">
      <stop
         style="stop-color:#ffd42a;stop-opacity:1;"
         offset="0"
         id="stop4016" />
      <stop
         style="stop-color:#f79700;stop-opacity:1;"
         offset="1"
         id="stop4018" />
    </linearGradient>
    <linearGradient
       id="linearGradient3960">
      <stop
         id="stop3962"
         offset="0"
         style="stop-color:#824924;stop-opacity:1;" />
      <stop
         id="stop3964"
         offset="1"
         style="stop-color:#a05a2c;stop-opacity:0.7703703;" />
    </linearGradient>
    <linearGradient
       id="linearGradient3946">
      <stop
         id="stop3948"
         offset="0"
         style="stop-color:#a05a2c;stop-opacity:1" />
      <stop
         id="stop3950"
         offset="1"
         style="stop-color:#a06500;stop-opacity:0.78676468;" />
    </linearGradient>
    <linearGradient
       id="linearGradient3938">
      <stop
         style="stop-color:#a05a2c;stop-opacity:1"
         offset="0"
         id="stop3940" />
      <stop
         style="stop-color:#a0650b;stop-opacity:1;"
         offset="1"
         id="stop3942" />
    </linearGradient>
    <linearGradient
       id="linearGradient3930">
      <stop
         style="stop-color:#aa4400;stop-opacity:1;"
         offset="0"
         id="stop3932" />
      <stop
         style="stop-color:#aa4400;stop-opacity:1;"
         offset="1"
         id="stop3934" />
    </linearGradient>
    <linearGradient
       id="linearGradient3922">
      <stop
         style="stop-color:#a05a2c;stop-opacity:1;"
         offset="0"
         id="stop3924" />
      <stop
         style="stop-color:#a05a4f;stop-opacity:1;"
         offset="1"
         id="stop3926" />
    </linearGradient>
    <linearGradient
       id="linearGradient3896">
      <stop
         id="stop3898"
         offset="0"
         style="stop-color:#de8787;stop-opacity:1;" />
      <stop
         id="stop3900"
         offset="1"
         style="stop-color:#de8700;stop-opacity:0;" />
    </linearGradient>
    <linearGradient
       id="linearGradient3888">
      <stop
         style="stop-color:#de8787;stop-opacity:1;"
         offset="0"
         id="stop3890" />
      <stop
         style="stop-color:#de8700;stop-opacity:0;"
         offset="1"
         id="stop3892" />
    </linearGradient>
    <linearGradient
       id="linearGradient3865">
      <stop
         style="stop-color:#d21c00;stop-opacity:1;"
         offset="0"
         id="stop3867" />
      <stop
         id="stop3883"
         offset="1"
         style="stop-color:#ffccaa;stop-opacity:1;" />
    </linearGradient>
    <linearGradient
       inkscape:collect="always"
       xlink:href="#linearGradient3865"
       id="linearGradient3911"
       gradientUnits="userSpaceOnUse"
       x1="237.14287"
       y1="949.50507"
       x2="264.64862"
       y2="818.77679"
       gradientTransform="matrix(0.95354611,-0.25869707,0.30124709,0.81886133,-1054.5614,-164.78206)" />
    <linearGradient
       inkscape:collect="always"
       xlink:href="#linearGradient3960"
       id="linearGradient3958"
       x1="405.71429"
       y1="619.08044"
       x2="373.76678"
       y2="476.22333"
       gradientUnits="userSpaceOnUse"
       gradientTransform="translate(-957.14286,14.285715)" />
    <linearGradient
       inkscape:collect="always"
       xlink:href="#linearGradient3960"
       id="linearGradient3981"
       gradientUnits="userSpaceOnUse"
       x1="281.7276"
       y1="538.55981"
       x2="360.43192"
       y2="135.70267" />
    <linearGradient
       inkscape:collect="always"
       xlink:href="#linearGradient3960"
       id="linearGradient3998"
       x1="442.85715"
       y1="588.76349"
       x2="420.00003"
       y2="71.620621"
       gradientUnits="userSpaceOnUse"
       gradientTransform="translate(-957.14286,14.285715)" />
    <linearGradient
       inkscape:collect="always"
       xlink:href="#linearGradient4014"
       id="linearGradient4037"
       gradientUnits="userSpaceOnUse"
       gradientTransform="matrix(0.82936072,0,0,0.82936072,-101.94248,121.80042)"
       x1="-620"
       y1="981.98798"
       x2="-624.66229"
       y2="444.84506" />
    <linearGradient
       inkscape:collect="always"
       xlink:href="#linearGradient3960-2"
       id="linearGradient3981-0"
       gradientUnits="userSpaceOnUse"
       x1="281.7276"
       y1="538.55981"
       x2="360.43192"
       y2="135.70267" />
    <linearGradient
       id="linearGradient3960-2">
      <stop
         id="stop3962-8"
         offset="0"
         style="stop-color:#824924;stop-opacity:1;" />
      <stop
         id="stop3964-6"
         offset="1"
         style="stop-color:#a05a2c;stop-opacity:0.7703703;" />
    </linearGradient>
    <linearGradient
       inkscape:collect="always"
       xlink:href="#linearGradient3960-2"
       id="linearGradient3958-0"
       x1="405.71429"
       y1="619.08044"
       x2="373.76678"
       y2="476.22333"
       gradientUnits="userSpaceOnUse"
       gradientTransform="translate(-957.14286,14.285715)" />
    <linearGradient
       id="linearGradient4109">
      <stop
         id="stop4111"
         offset="0"
         style="stop-color:#824924;stop-opacity:1;" />
      <stop
         id="stop4113"
         offset="1"
         style="stop-color:#a05a2c;stop-opacity:0.7703703;" />
    </linearGradient>
    <linearGradient
       inkscape:collect="always"
       xlink:href="#linearGradient3865-4"
       id="linearGradient3911-2"
       gradientUnits="userSpaceOnUse"
       x1="237.14287"
       y1="949.50507"
       x2="264.64862"
       y2="818.77679"
       gradientTransform="matrix(0.95354611,-0.25869707,0.30124709,0.81886133,-1054.5614,-164.78206)" />
    <linearGradient
       id="linearGradient3865-4">
      <stop
         style="stop-color:#d21c00;stop-opacity:1;"
         offset="0"
         id="stop3867-8" />
      <stop
         id="stop3883-6"
         offset="1"
         style="stop-color:#ffccaa;stop-opacity:1;" />
    </linearGradient>
    <linearGradient
       inkscape:collect="always"
       xlink:href="#linearGradient3960-2"
       id="linearGradient3998-5"
       x1="442.85715"
       y1="588.76349"
       x2="420.00003"
       y2="71.620621"
       gradientUnits="userSpaceOnUse"
       gradientTransform="translate(-957.14286,14.285715)" />
    <linearGradient
       id="linearGradient4120">
      <stop
         id="stop4122"
         offset="0"
         style="stop-color:#824924;stop-opacity:1;" />
      <stop
         id="stop4124"
         offset="1"
         style="stop-color:#a05a2c;stop-opacity:0.7703703;" />
    </linearGradient>
    <linearGradient
       inkscape:collect="always"
       xlink:href="#linearGradient4014-9"
       id="linearGradient4037-0"
       gradientUnits="userSpaceOnUse"
       gradientTransform="matrix(0.82936072,0,0,0.82936072,-101.94248,121.80042)"
       x1="-620"
       y1="981.98798"
       x2="-624.66229"
       y2="444.84506" />
    <linearGradient
       id="linearGradient4014-9">
      <stop
         style="stop-color:#ffd42a;stop-opacity:1;"
         offset="0"
         id="stop4016-0" />
      <stop
         style="stop-color:#f79700;stop-opacity:1;"
         offset="1"
         id="stop4018-0" />
    </linearGradient>
    <filter
       id="filter4355"
       inkscape:label="Duotone"
       inkscape:menu="Color"
       inkscape:menu-tooltip="Change colors to a duotone palette"
       height="1"
       width="1"
       y="0"
       x="0"
       color-interpolation-filters="sRGB">
      <feColorMatrix
         id="feColorMatrix4357"
         type="saturate"
         values="0"
         result="result1" />
      <feFlood
         id="feFlood4359"
         flood-color="rgb(9,111,152)"
         result="result2" />
      <feBlend
         id="feBlend4361"
         in2="result1"
         mode="screen"
         result="result2" />
      <feComposite
         id="feComposite4363"
         in2="SourceGraphic"
         operator="in"
         in="result2" />
    </filter>
    <filter
       id="filter4365"
       inkscape:label="Duotone"
       inkscape:menu="Color"
       inkscape:menu-tooltip="Change colors to a duotone palette"
       height="1"
       width="1"
       y="0"
       x="0"
       color-interpolation-filters="sRGB">
      <feColorMatrix
         id="feColorMatrix4367"
         type="saturate"
         values="0"
         result="result1" />
      <feFlood
         id="feFlood4369"
         flood-color="rgb(9,111,152)"
         result="result2" />
      <feBlend
         id="feBlend4371"
         in2="result1"
         mode="screen"
         result="result2" />
      <feComposite
         id="feComposite4373"
         in2="SourceGraphic"
         operator="in"
         in="result2" />
    </filter>
    <filter
       id="filter4375"
       inkscape:label="Duotone"
       inkscape:menu="Color"
       inkscape:menu-tooltip="Change colors to a duotone palette"
       height="1"
       width="1"
       y="0"
       x="0"
       color-interpolation-filters="sRGB">
      <feColorMatrix
         id="feColorMatrix4377"
         type="saturate"
         values="0"
         result="result1" />
      <feFlood
         id="feFlood4379"
         flood-color="rgb(9,111,152)"
         result="result2" />
      <feBlend
         id="feBlend4381"
         in2="result1"
         mode="screen"
         result="result2" />
      <feComposite
         id="feComposite4383"
         in2="SourceGraphic"
         operator="in"
         in="result2" />
    </filter>
    <filter
       id="filter4385"
       inkscape:label="Duotone"
       inkscape:menu="Color"
       inkscape:menu-tooltip="Change colors to a duotone palette"
       height="1"
       width="1"
       y="0"
       x="0"
       color-interpolation-filters="sRGB">
      <feColorMatrix
         id="feColorMatrix4387"
         type="saturate"
         values="0"
         result="result1" />
      <feFlood
         id="feFlood4389"
         flood-color="rgb(9,111,152)"
         result="result2" />
      <feBlend
         id="feBlend4391"
         in2="result1"
         mode="screen"
         result="result2" />
      <feComposite
         id="feComposite4393"
         in2="SourceGraphic"
         operator="in"
         in="result2" />
    </filter>
    <filter
       id="filter4395"
       inkscape:label="Duotone"
       inkscape:menu="Color"
       inkscape:menu-tooltip="Change colors to a duotone palette"
       height="1"
       width="1"
       y="0"
       x="0"
       color-interpolation-filters="sRGB">
      <feColorMatrix
         id="feColorMatrix4397"
         type="saturate"
         values="0"
         result="result1" />
      <feFlood
         id="feFlood4399"
         flood-color="rgb(9,111,152)"
         result="result2" />
      <feBlend
         id="feBlend4401"
         in2="result1"
         mode="screen"
         result="result2" />
      <feComposite
         id="feComposite4403"
         in2="SourceGraphic"
         operator="in"
         in="result2" />
    </filter>
    <filter
       id="filter4405"
       inkscape:label="Duotone"
       inkscape:menu="Color"
       inkscape:menu-tooltip="Change colors to a duotone palette"
       height="1"
       width="1"
       y="0"
       x="0"
       color-interpolation-filters="sRGB">
      <feColorMatrix
         id="feColorMatrix4407"
         type="saturate"
         values="0"
         result="result1" />
      <feFlood
         id="feFlood4409"
         flood-color="rgb(9,111,152)"
         result="result2" />
      <feBlend
         id="feBlend4411"
         in2="result1"
         mode="screen"
         result="result2" />
      <feComposite
         id="feComposite4413"
         in2="SourceGraphic"
         operator="in"
         in="result2" />
    </filter>
    <filter
       id="filter4415"
       inkscape:label="Duotone"
       inkscape:menu="Color"
       inkscape:menu-tooltip="Change colors to a duotone palette"
       height="1"
       width="1"
       y="0"
       x="0"
       color-interpolation-filters="sRGB">
      <feColorMatrix
         id="feColorMatrix4417"
         type="saturate"
         values="0"
         result="result1" />
      <feFlood
         id="feFlood4419"
         flood-color="rgb(9,111,152)"
         result="result2" />
      <feBlend
         id="feBlend4421"
         in2="result1"
         mode="screen"
         result="result2" />
      <feComposite
         id="feComposite4423"
         in2="SourceGraphic"
         operator="in"
         in="result2" />
    </filter>
    <filter
       id="filter4425"
       inkscape:label="Duotone"
       inkscape:menu="Color"
       inkscape:menu-tooltip="Change colors to a duotone palette"
       height="1"
       width="1"
       y="0"
       x="0"
       color-interpolation-filters="sRGB">
      <feColorMatrix
         id="feColorMatrix4427"
         type="saturate"
         values="0"
         result="result1" />
      <feFlood
         id="feFlood4429"
         flood-color="rgb(9,111,152)"
         result="result2" />
      <feBlend
         id="feBlend4431"
         in2="result1"
         mode="screen"
         result="result2" />
      <feComposite
         id="feComposite4433"
         in2="SourceGraphic"
         operator="in"
         in="result2" />
    </filter>
    <filter
       id="filter4435"
       inkscape:label="Duotone"
       inkscape:menu="Color"
       inkscape:menu-tooltip="Change colors to a duotone palette"
       height="1"
       width="1"
       y="0"
       x="0"
       color-interpolation-filters="sRGB">
      <feColorMatrix
         id="feColorMatrix4437"
         type="saturate"
         values="0"
         result="result1" />
      <feFlood
         id="feFlood4439"
         flood-color="rgb(9,111,152)"
         result="result2" />
      <feBlend
         id="feBlend4441"
         in2="result1"
         mode="screen"
         result="result2" />
      <feComposite
         id="feComposite4443"
         in2="SourceGraphic"
         operator="in"
         in="result2" />
    </filter>
    <filter
       id="filter4445"
       inkscape:label="Duotone"
       inkscape:menu="Color"
       inkscape:menu-tooltip="Change colors to a duotone palette"
       height="1"
       width="1"
       y="0"
       x="0"
       color-interpolation-filters="sRGB">
      <feColorMatrix
         id="feColorMatrix4447"
         type="saturate"
         values="0"
         result="result1" />
      <feFlood
         id="feFlood4449"
         flood-color="rgb(9,111,152)"
         result="result2" />
      <feBlend
         id="feBlend4451"
         in2="result1"
         mode="screen"
         result="result2" />
      <feComposite
         id="feComposite4453"
         in2="SourceGraphic"
         operator="in"
         in="result2" />
    </filter>
    <filter
       id="filter4455"
       inkscape:label="Duotone"
       inkscape:menu="Color"
       inkscape:menu-tooltip="Change colors to a duotone palette"
       height="1"
       width="1"
       y="0"
       x="0"
       color-interpolation-filters="sRGB">
      <feColorMatrix
         id="feColorMatrix4457"
         type="saturate"
         values="0"
         result="result1" />
      <feFlood
         id="feFlood4459"
         flood-color="rgb(9,111,152)"
         result="result2" />
      <feBlend
         id="feBlend4461"
         in2="result1"
         mode="screen"
         result="result2" />
      <feComposite
         id="feComposite4463"
         in2="SourceGraphic"
         operator="in"
         in="result2" />
    </filter>
    <filter
       id="filter4465"
       inkscape:label="Duotone"
       inkscape:menu="Color"
       inkscape:menu-tooltip="Change colors to a duotone palette"
       height="1"
       width="1"
       y="0"
       x="0"
       color-interpolation-filters="sRGB">
      <feColorMatrix
         id="feColorMatrix4467"
         type="saturate"
         values="0"
         result="result1" />
      <feFlood
         id="feFlood4469"
         flood-color="rgb(9,111,152)"
         result="result2" />
      <feBlend
         id="feBlend4471"
         in2="result1"
         mode="screen"
         result="result2" />
      <feComposite
         id="feComposite4473"
         in2="SourceGraphic"
         operator="in"
         in="result2" />
    </filter>
    <filter
       id="filter4475"
       inkscape:label="Duotone"
       inkscape:menu="Color"
       inkscape:menu-tooltip="Change colors to a duotone palette"
       height="1"
       width="1"
       y="0"
       x="0"
       color-interpolation-filters="sRGB">
      <feColorMatrix
         id="feColorMatrix4477"
         type="saturate"
         values="0"
         result="result1" />
      <feFlood
         id="feFlood4479"
         flood-color="rgb(9,111,152)"
         result="result2" />
      <feBlend
         id="feBlend4481"
         in2="result1"
         mode="screen"
         result="result2" />
      <feComposite
         id="feComposite4483"
         in2="SourceGraphic"
         operator="in"
         in="result2" />
    </filter>
    <filter
       id="filter4485"
       inkscape:label="Duotone"
       inkscape:menu="Color"
       inkscape:menu-tooltip="Change colors to a duotone palette"
       height="1"
       width="1"
       y="0"
       x="0"
       color-interpolation-filters="sRGB">
      <feColorMatrix
         id="feColorMatrix4487"
         type="saturate"
         values="0"
         result="result1" />
      <feFlood
         id="feFlood4489"
         flood-color="rgb(9,111,152)"
         result="result2" />
      <feBlend
         id="feBlend4491"
         in2="result1"
         mode="screen"
         result="result2" />
      <feComposite
         id="feComposite4493"
         in2="SourceGraphic"
         operator="in"
         in="result2" />
    </filter>
  </defs>
  <sodipodi:namedview
     id="base"
     pagecolor="#ffffff"
     bordercolor="#666666"
     borderopacity="1.0"
     inkscape:pageopacity="0.0"
     inkscape:pageshadow="2"
     inkscape:zoom="0.2982036"
     inkscape:cx="-1064.2412"
     inkscape:cy="63.936058"
     inkscape:document-units="px"
     inkscape:current-layer="layer1"
     showgrid="false"
     inkscape:window-width="1366"
     inkscape:window-height="746"
     inkscape:window-x="-8"
     inkscape:window-y="-8"
     inkscape:window-maximized="1"
     inkscape:snap-grids="false" />
  <metadata
     id="metadata7">
    <rdf:RDF>
      <cc:Work
         rdf:about="">
        <dc:format>image/svg+xml</dc:format>
        <dc:type
           rdf:resource="http://purl.org/dc/dcmitype/StillImage" />
        <dc:title />
      </cc:Work>
    </rdf:RDF>
  </metadata>
  <g
     inkscape:label="Layer 1"
     inkscape:groupmode="layer"
     id="layer1">
    <path
       style="fill:#eaae86;fill-opacity:1;stroke:none"
       d="m -520.71428,554.59738 c -30.79347,-15.8047 -77.40817,-61.93516 -87.01062,-86.10675 -2.18496,-5.50004 -3.15921,-15.75612 -2.38433,-25.10015 2.52327,-30.42735 27.29883,-52.74257 58.55764,-52.74257 30.00673,0 49.16628,16.1016 59.44233,49.95506 16.51953,54.42198 21.20461,99.76024 11.79314,114.12397 -6.39602,9.76155 -21.21919,9.71401 -40.39816,-0.12956 z"
       id="path3192"
       inkscape:connector-curvature="0"
       inkscape:transform-center-x="-28.571429"
       inkscape:transform-center-y="54.285714" />
    <g
       id="g3231"
       inkscape:transform-center-x="-65.714286"
       inkscape:transform-center-y="25.714286"
       transform="translate(-220,-562.85714)">
      <path
         sodipodi:nodetypes="sssssss"
         inkscape:connector-curvature="0"
         id="path3108-4"
         d="m -249.05524,1473.484 c 0,22.8803 -5.41112,24.2857 -61.42857,24.2857 -31.47075,0 -71.02248,-0.1399 -89.62655,-9.3276 -14.5109,-7.1663 -11.80204,-22.0748 -11.80204,-32.1009 0,-9.7578 19.68773,-47.2991 44.93503,-57.2355 19.43006,-7.647 35.79434,35.8069 59.3507,41.5212 54.43863,13.2057 58.57143,9.9767 58.57143,32.8571 z"
         style="fill:#ffccaa;fill-opacity:1;stroke:none" />
      <path
         sodipodi:nodetypes="sssss"
         inkscape:connector-curvature="0"
         id="path3111-8"
         d="m -189.05521,1469.1983 c 0,15.7795 -28.99636,28.5714 -47.14286,28.5714 -18.1465,0 -41.42857,4.351 -41.42857,-11.4285 0,-15.7796 37.56778,-54.2858 55.71428,-54.2858 18.1465,0 32.85715,21.3633 32.85715,37.1429 z"
         style="fill:#ffccaa;fill-opacity:1;stroke:none" />
      <path
         transform="matrix(1.1176471,0,0,1.2222222,386.40694,-313.53006)"
         d="m -519.99999,1448.0764 c 0,7.1008 -10.87309,12.8572 -24.28572,12.8572 -13.41263,0 -24.28571,-5.7564 -24.28571,-12.8572 0,-7.1008 10.87308,-12.8571 24.28571,-12.8571 13.41263,0 24.28572,5.7563 24.28572,12.8571 z"
         sodipodi:ry="12.857142"
         sodipodi:rx="24.285715"
         sodipodi:cy="1448.0764"
         sodipodi:cx="-544.28571"
         id="path3116-8"
         style="fill:#e9ddaf;fill-opacity:1;stroke:none"
         sodipodi:type="arc" />
      <path
         inkscape:connector-curvature="0"
         id="path3152"
         d="m -375.11047,1493.5342 c -16.7639,-2.4629 -31.30086,-9.2832 -33.82901,-15.8715 -7.64451,-19.9212 11.03525,-57.5409 37.02827,-74.5722 9.72259,-6.3705 20.402,-1.4272 35.43637,16.4027 14.42695,17.1095 20.09474,20.1487 52.76324,28.2934 20.35895,5.0757 26.67322,5.6895 30.964,3.0099 4.72847,-2.953 5.16601,-2.6607 3.56546,2.3822 -2.44146,7.6924 6.73097,16.6164 19.55084,19.0214 11.40639,2.1399 29.99693,-3.0334 32.27988,-8.9827 2.67328,-6.9664 6.63714,-4.322 6.63714,4.428 0,9.4785 -11.52326,19.8535 -28.2835,25.4651 -10.86954,3.6392 -131.98877,3.968 -156.11269,0.4237 l 0,0 z"
         style="fill:#eaae86;fill-opacity:1;stroke:none" />
      <path
         inkscape:connector-curvature="0"
         id="path3156"
         d="m -224.22619,1440.3503 c 0.94941,-0.9494 3.41369,-1.0509 5.47619,-0.2256 2.27924,0.9121 1.60222,1.5891 -1.72619,1.7262 -3.0119,0.1241 -4.6994,-0.5512 -3.75,-1.5006 z"
         style="fill:#eaae86;fill-opacity:1;stroke:none" />
      <path
         inkscape:connector-curvature="0"
         id="path3160"
         d="m -232.75828,1437.2253 c 8.23951,-4.5792 16.86823,-4.6171 23.04403,-0.1012 4.19613,3.0683 2.33762,3.619 -12.2122,3.619 -15.11226,0 -16.40571,-0.42 -10.83183,-3.5178 l 0,0 z"
         style="fill:#eaae86;fill-opacity:1;stroke:none" />
      <path
         inkscape:connector-curvature="0"
         id="path3162"
         d="m -227.17616,1437.2562 c 2.73167,-0.7151 7.87453,-0.741 11.42857,-0.058 3.55403,0.6834 1.31902,1.2685 -4.96669,1.3002 -6.28572,0.032 -9.19356,-0.5274 -6.46188,-1.2426 z"
         style="fill:#eaae86;fill-opacity:1;stroke:none" />
    </g>
    <path
       style="fill:#eaae86;fill-opacity:1;stroke:none"
       d="m -595.28052,876.68402 c -2.68349,-2.91596 -3.29316,-10.24385 -1.92749,-23.16744 1.59249,-15.06994 0.50231,-23.42148 -5.37683,-41.19006 -5.86426,-17.72357 -6.71912,-24.23928 -4.17466,-31.81862 6.10807,-18.19463 24.17928,-25.52331 51.63381,-20.93965 23.89772,3.98925 44.52771,28.55394 41.16289,49.01248 -3.13979,19.09032 -33.91472,59.20323 -53.84364,70.1814 -9.51402,5.24085 -21.57828,4.32835 -27.47408,-2.07811 z"
       id="path3150"
       inkscape:connector-curvature="0"
       inkscape:transform-center-y="43.883081" />
    <path
       style="fill:#eaae86;fill-opacity:1;stroke:none"
       d="m -576.11133,830.96516 c -17.53657,-17.5366 -47.64247,-76.4685 -54.37723,-106.4427 -8.30267,-36.9525 25.53846,-74.17078 63.84569,-70.21712 18.75831,1.93603 35.65721,12.05782 44.86852,26.87442 6.19855,9.9705 6.7681,13.9323 6.70082,46.611 -0.0582,28.2818 -1.4062,40.366 -6.4772,58.0663 -15.60173,54.4578 -31.81039,67.8583 -54.5606,45.1081 z"
       id="path3148"
       inkscape:connector-curvature="0"
       inkscape:transform-center-y="65.714286" />
    <path
       style="fill:#ffccaa;fill-opacity:1;stroke:none"
       d="m -620.81278,672.53084 c 12.39084,30.7331 -3.92977,140.2121 -35.39477,152.898 -31.46498,12.686 -66.15919,-76.2252 -78.55004,-106.9583 -12.39089,-30.7333 3.07177,-65.9314 34.53674,-78.61741 31.465,-12.68583 67.01718,1.9444 79.40807,32.67771 z"
       id="path3048-7"
       inkscape:connector-curvature="0"
       sodipodi:nodetypes="sssss"
       inkscape:transform-center-y="62.857143" />
    <path
       style="fill:#eaae86;fill-opacity:1;stroke:none"
       d="m -428.78223,713.42125 c -23.89302,11.5169 -70.59232,19.29305 -90.77228,15.11496 -27.10881,-5.61272 -38.41466,-23.12972 -31.38489,-48.62699 4.37494,-15.86823 43.28925,-82.97476 51.08643,-88.09706 16.40197,-10.77515 24.15628,-6.85166 61.44302,31.08863 37.57734,38.23598 41.50409,75.15549 9.62772,90.52046 z"
       id="path3188"
       inkscape:connector-curvature="0"
       inkscape:transform-center-x="-6.1627466"
       inkscape:transform-center-y="45.516099" />
    <path
       style="fill:#eaae86;fill-opacity:1;stroke:none"
       d="m -495.74516,619.26686 c -17.44019,-9.07926 -46.88765,-51.29726 -53.92011,-77.30378 -2.01995,-7.46991 -1.81883,-17.40533 0.51016,-25.20289 5.03905,-16.87091 22.99461,-29.8785 40.06625,-29.02527 23.96891,1.19793 41.48212,20.17234 42.54752,46.09745 0.98188,23.89283 -2.41986,65.76397 -6.05403,74.51759 -4.91696,11.84341 -13.54993,15.91452 -23.14979,10.9169 z"
       id="path3190"
       inkscape:connector-curvature="0"
       inkscape:transform-center-y="39.644314"
       inkscape:transform-center-x="-10.559074" />
    <g
       id="g4030"
       transform="matrix(0.83353737,0,0,1.1421005,-115.42077,-309.26145)"
       inkscape:transform-center-y="-127.2626">
      <path
         sodipodi:nodetypes="sscccccccccccs"
         inkscape:connector-curvature="0"
         id="rect3243"
         d="m -699.71423,590.89138 c 84.94163,-40.98262 67.37834,-42.87268 211.2305,28.43522 79.25225,39.28555 30.97737,121.27332 9.67291,184.96823 -16.58366,77.52289 18.62105,136.467 18.62105,136.467 l -42.98634,-13.18774 -23.88194,22.2772 -29.46472,-27.66059 -36.40691,26.67465 -46.00335,-24.74796 -34.63311,25.74394 -50.31339,-33.36651 -81.83476,24.26701 c 0,0 68.74708,-87.66471 54.78342,-144.72694 -9.12156,-70.03436 -18.34221,-171.58278 51.21664,-205.14351 z"
         style="fill:url(#linearGradient4037);fill-opacity:1;stroke:none" />
      <path
         d="m -680.00001,782.36218 c 0,11.83468 -7.03552,21.42857 -15.71428,21.42857 -8.67876,0 -15.71429,-9.59389 -15.71429,-21.42857 0,-11.83467 7.03553,-21.42857 15.71429,-21.42857 8.67876,0 15.71428,9.5939 15.71428,21.42857 z"
         sodipodi:ry="21.428572"
         sodipodi:rx="15.714286"
         sodipodi:cy="782.36218"
         sodipodi:cx="-695.71429"
         id="path4022"
         style="fill:#a05a2c;fill-opacity:1;stroke:none"
         sodipodi:type="arc" />
      <path
         d="m -511.42857,743.79077 c 0,14.20161 -8.31471,25.71429 -18.57143,25.71429 -10.25672,0 -18.57143,-11.51268 -18.57143,-25.71429 0,-14.20161 8.31471,-25.71428 18.57143,-25.71428 10.25672,0 18.57143,11.51267 18.57143,25.71428 z"
         sodipodi:ry="25.714285"
         sodipodi:rx="18.571428"
         sodipodi:cy="743.79077"
         sodipodi:cx="-530"
         id="path4024"
         style="fill:#a05a2c;fill-opacity:1;stroke:none"
         sodipodi:type="arc" />
      <path
         transform="translate(-5.7142857,0)"
         d="m -477.14284,780.93359 c 0,6.31183 -6.39594,11.42858 -14.28572,11.42858 -7.88978,0 -14.28571,-5.11675 -14.28571,-11.42858 0,-6.31182 6.39593,-11.42857 14.28571,-11.42857 7.88978,0 14.28572,5.11675 14.28572,11.42857 z"
         sodipodi:ry="11.428572"
         sodipodi:rx="14.285714"
         sodipodi:cy="780.93359"
         sodipodi:cx="-491.42856"
         id="path4026"
         style="fill:#a05a2c;fill-opacity:1;stroke:none"
         sodipodi:type="arc" />
      <path
         d="m -514.2857,806.64789 c 0,7.88978 -6.39593,14.28571 -14.28571,14.28571 -7.88978,0 -14.28572,-6.39593 -14.28572,-14.28571 0,-7.88978 6.39594,-14.28572 14.28572,-14.28572 7.88978,0 14.28571,6.39594 14.28571,14.28572 z"
         sodipodi:ry="14.285714"
         sodipodi:rx="14.285714"
         sodipodi:cy="806.64789"
         sodipodi:cx="-528.57141"
         id="path4028"
         style="fill:#a05a2c;fill-opacity:1;stroke:none"
         sodipodi:type="arc" />
    </g>
    <g
       id="g3194"
       transform="matrix(0.9903979,-0.13824616,0.13824616,0.9903979,-36.146444,-208.70067)"
       inkscape:transform-center-x="126.8946"
       inkscape:transform-center-y="-185.24381">
      <g
         id="g4043"
         inkscape:transform-center-x="104.83898"
         inkscape:transform-center-y="-228.23885"
         transform="matrix(0.99680504,-0.0798731,0.0798731,0.99680504,-6.3737823,-55.657567)">
        <path
           style="fill:#eaae86;fill-opacity:1;stroke:none"
           d="m -588.57142,540.93363 c 0,55.22847 -69.12252,122.85714 -111.42857,102.85714 -35.66441,-16.86019 -42.85715,-56.2001 -42.85715,-111.42857 0,-55.22848 43.40824,-91.42857 82.85715,-91.42857 39.44891,0 71.42857,44.77152 71.42857,100 z"
           id="path3913"
           inkscape:connector-curvature="0"
           sodipodi:nodetypes="sssss" />
        <path
           style="fill:#925127;fill-opacity:0.88627451;stroke:none"
           d="m -1122.5875,398.78137 c -11.7357,-43.56281 -60.2843,-95.04633 -5.0159,-151.07766 19.3686,-19.63592 32.183,-33.23742 68.4213,-49.9433 15.4177,-7.10755 45.2944,-19.91999 70.89803,-30.2008 46.99888,-18.87182 223.48415,58.47584 223.48415,58.47584 l -9.9208,82.70643 c 0,0 -34.34511,5.14391 -63.95313,26.08849 -22.5893,15.97956 -77.4243,10.15366 -97.90238,38.95421 -10.23437,14.3937 -25.62134,44.21879 -24.7305,77.48226 1.63122,60.90914 40.37654,167.13308 40.37654,167.13308 0,0 -180.93451,-142.69616 -201.65731,-219.61855 z"
           id="rect4048"
           inkscape:connector-curvature="0"
           sodipodi:nodetypes="ssssccssscs" />
        <a
           id="a3989"
           transform="translate(-957.14286,14.285715)">
          <path
             sodipodi:nodetypes="sscssssss"
             inkscape:connector-curvature="0"
             id="path3915"
             d="m 569.16944,353.79074 c 0,111.24593 -118.06849,201.42857 -280.598,201.42857 -61.16906,0 -87.18191,-15.80286 -137.6719,-19.4919 C 110.21133,532.75453 97.548001,511.38388 69.969948,479.15048 38.05019,441.84247 -5.7142639,391.01097 -5.7142639,353.79074 c 0,-38.65742 46.7072819,-74.77139 74.2898149,-105.44159 51.792769,-57.59059 75.616069,-105.05119 202.886259,-95.98698 108.91657,7.75706 244.18597,35.58025 295.86214,92.54421 27.22307,30.00867 1.84549,70.50052 1.84549,108.88436 z"
             style="fill:url(#linearGradient3981);fill-opacity:1;stroke:none"
             transform="matrix(0.83495146,0,0,0.94326243,79.056869,-17.069623)" />
        </a>
        <path
           sodipodi:type="arc"
           style="fill:#ffccaa;stroke:none"
           id="path2987"
           sodipodi:cx="474.28571"
           sodipodi:cy="555.2193"
           sodipodi:rx="242.85715"
           sodipodi:ry="242.85715"
           d="m 717.14285,555.2193 c 0,134.1263 -108.73085,242.85715 -242.85714,242.85715 -134.1263,0 -242.85715,-108.73085 -242.85715,-242.85715 0,-134.1263 108.73085,-242.85715 242.85715,-242.85715 134.12629,0 242.85714,108.73085 242.85714,242.85715 z"
           transform="matrix(0.77552183,0,0,0.80137255,-947.58851,-66.527721)" />
        <path
           style="fill:#d38d5f;stroke:none"
           d="m -531.42857,370.9336 c 0,52.86154 -34.67392,84.28572 -84.14286,84.28572 -49.46892,0 -73.28571,0.004 -78.71428,-50.00001 -5.70164,-52.51972 26.53107,-121.42856 75.99999,-121.42856 49.46894,0 86.85715,34.28131 86.85715,87.14285 z"
           id="path2993"
           inkscape:connector-curvature="0"
           sodipodi:nodetypes="sssss" />
        <path
           sodipodi:type="arc"
           style="fill:#cccccc;stroke:none"
           id="path2989-1"
           sodipodi:cx="478.57144"
           sodipodi:cy="362.36218"
           sodipodi:rx="81.428574"
           sodipodi:ry="81.428574"
           d="m 560.00002,362.36218 c 0,44.97176 -36.45682,81.42858 -81.42858,81.42858 -44.97176,0 -81.42857,-36.45682 -81.42857,-81.42858 0,-44.97176 36.45681,-81.42857 81.42857,-81.42857 44.97176,0 81.42858,36.45681 81.42858,81.42857 z"
           transform="translate(-1084.2857,-1.4285713)" />
        <path
           sodipodi:type="arc"
           style="fill:#ffffff;stroke:none"
           id="path2989"
           sodipodi:cx="478.57144"
           sodipodi:cy="362.36218"
           sodipodi:rx="81.428574"
           sodipodi:ry="81.428574"
           d="m 560.00002,362.36218 c 0,44.97176 -36.45682,81.42858 -81.42858,81.42858 -44.97176,0 -81.42857,-36.45682 -81.42857,-81.42858 0,-44.97176 36.45681,-81.42857 81.42857,-81.42857 44.97176,0 81.42858,36.45681 81.42858,81.42857 z"
           transform="matrix(0.89473684,0,0,0.89473684,-1032.4812,29.571965)" />
        <path
           sodipodi:type="arc"
           style="fill:#338000;stroke:none"
           id="path3018"
           sodipodi:cx="354.28571"
           sodipodi:cy="235.21933"
           sodipodi:rx="48.57143"
           sodipodi:ry="48.57143"
           d="m 402.85714,235.21933 c 0,26.82526 -21.74617,48.57143 -48.57143,48.57143 -26.82526,0 -48.57143,-21.74617 -48.57143,-48.57143 0,-26.82526 21.74617,-48.57143 48.57143,-48.57143 26.82526,0 48.57143,21.74617 48.57143,48.57143 z"
           transform="translate(-951.42857,117.14286)" />
        <path
           sodipodi:type="arc"
           style="fill:#28220b;stroke:none"
           id="path3022"
           sodipodi:cx="354.28571"
           sodipodi:cy="235.21933"
           sodipodi:rx="34.285713"
           sodipodi:ry="34.285713"
           d="m 388.57142,235.21933 c 0,18.93548 -15.35024,34.28571 -34.28571,34.28571 -18.93548,0 -34.28572,-15.35023 -34.28572,-34.28571 0,-18.93548 15.35024,-34.28571 34.28572,-34.28571 18.93547,0 34.28571,15.35023 34.28571,34.28571 z"
           transform="translate(-951.42857,120.00001)" />
        <path
           sodipodi:type="arc"
           style="fill:#f4e3d7;stroke:none"
           id="path3024"
           sodipodi:cx="344.28571"
           sodipodi:cy="245.21933"
           sodipodi:rx="12.857142"
           sodipodi:ry="12.857142"
           d="m 357.14285,245.21933 c 0,7.1008 -5.75634,12.85714 -12.85714,12.85714 -7.10081,0 -12.85715,-5.75634 -12.85715,-12.85714 0,-7.1008 5.75634,-12.85714 12.85715,-12.85714 7.1008,0 12.85714,5.75634 12.85714,12.85714 z"
           transform="translate(-948.57143,125.71429)" />
        <path
           style="fill:#d38d5f;stroke:none"
           d="m -467.83442,375.35289 c 0,44.26616 13.80589,70.58072 33.50261,70.58072 19.6967,0 29.17967,0.003 31.34113,-41.86993 2.27019,-43.97992 -10.5637,-101.68407 -30.2604,-101.68407 -19.69673,0 -34.58334,28.70711 -34.58334,72.97328 z"
           id="path2993-7"
           inkscape:connector-curvature="0"
           sodipodi:nodetypes="sssss" />
        <path
           sodipodi:type="arc"
           style="fill:#cccccc;stroke:none"
           id="path2989-1-4"
           sodipodi:cx="478.57144"
           sodipodi:cy="362.36218"
           sodipodi:rx="81.428574"
           sodipodi:ry="81.428574"
           d="m 560.00002,362.36218 c 0,44.97176 -36.45682,81.42858 -81.42858,81.42858 -44.97176,0 -81.42857,-36.45682 -81.42857,-81.42858 0,-44.97176 36.45681,-81.42857 81.42857,-81.42857 44.97176,0 81.42858,36.45681 81.42858,81.42857 z"
           transform="matrix(0.32798786,0,0,0.83739837,-595.49017,63.537414)" />
        <path
           sodipodi:type="arc"
           style="fill:#ffffff;stroke:none"
           id="path2989-0"
           sodipodi:cx="478.57144"
           sodipodi:cy="362.36218"
           sodipodi:rx="81.428574"
           sodipodi:ry="81.428574"
           d="m 560.00002,362.36218 c 0,44.97176 -36.45682,81.42858 -81.42858,81.42858 -44.97176,0 -81.42857,-36.45682 -81.42857,-81.42858 0,-44.97176 36.45681,-81.42857 81.42857,-81.42857 44.97176,0 81.42858,36.45681 81.42858,81.42857 z"
           transform="matrix(0.29346282,0,0,0.74925117,-578.49892,89.497216)" />
        <path
           sodipodi:type="arc"
           style="fill:#338000;stroke:none"
           id="path3018-9"
           sodipodi:cx="354.28571"
           sodipodi:cy="235.21933"
           sodipodi:rx="48.57143"
           sodipodi:ry="48.57143"
           d="m 402.85714,235.21933 c 0,26.82526 -21.74617,48.57143 -48.57143,48.57143 -26.82526,0 -48.57143,-21.74617 -48.57143,-48.57143 0,-26.82526 21.74617,-48.57143 48.57143,-48.57143 26.82526,0 48.57143,21.74617 48.57143,48.57143 z"
           transform="matrix(0.39816329,0,0,0.83739837,-569.95975,162.82894)" />
        <path
           sodipodi:type="arc"
           style="fill:#28220b;stroke:none"
           id="path3022-4"
           sodipodi:cx="354.28571"
           sodipodi:cy="235.21933"
           sodipodi:rx="34.285713"
           sodipodi:ry="34.285713"
           d="m 388.57142,235.21933 c 0,18.93548 -15.35024,34.28571 -34.28571,34.28571 -18.93548,0 -34.28572,-15.35023 -34.28572,-34.28571 0,-18.93548 15.35024,-34.28571 34.28572,-34.28571 18.93547,0 34.28571,15.35023 34.28571,34.28571 z"
           transform="matrix(0.39816329,0,0,0.83739837,-569.95975,165.2215)" />
        <path
           sodipodi:type="arc"
           style="fill:#f4e3d7;stroke:none"
           id="path3024-8"
           sodipodi:cx="344.28571"
           sodipodi:cy="245.21933"
           sodipodi:rx="12.857142"
           sodipodi:ry="12.857142"
           d="m 357.14285,245.21933 c 0,7.1008 -5.75634,12.85714 -12.85714,12.85714 -7.10081,0 -12.85715,-5.75634 -12.85715,-12.85714 0,-7.1008 5.75634,-12.85714 12.85715,-12.85714 7.1008,0 12.85714,5.75634 12.85714,12.85714 z"
           transform="matrix(0.39816329,0,0,0.83739837,-568.82214,170.00664)" />
        <path
           style="fill:url(#linearGradient3958);fill-opacity:1;stroke:none"
           d="m -425.71429,585.21936 c -18.28538,26.50918 -14.76845,44.23366 -34.87394,57.67023 -17.59299,11.75746 -57.29015,20.9012 -92.26892,20.9012 -18.30416,0 -60.36261,-11.60436 -83.25006,-29.86921 -70.83338,-56.52712 -129.60707,-176.84943 -129.60707,-214.4165 0,-24.40664 45.1634,44.94046 94.19424,66.59496 27.76442,12.26217 56.89594,19.00918 83.83458,14.82949 22.37326,-3.47135 43.23393,-17.13874 60.5426,-17.13874 46.10828,0 86.8461,-16.18015 111.37232,7.12732 15.34324,14.58079 0.91745,78.55526 -9.94375,94.30125 z"
           id="path3917"
           inkscape:connector-curvature="0"
           sodipodi:nodetypes="sssscsssss" />
        <path
           style="fill:url(#linearGradient3911);fill-opacity:1;stroke:none"
           d="m -451.64646,431.55636 c 89.9121,40.78372 28.92941,76.68886 -11.45997,82.87559 -43.56684,6.67347 -102.20865,-13.75467 -91.06489,-60.20682 5.52965,-23.05001 20.07771,-47.71034 24.77581,-66.34428 3.34053,-13.2495 -6.77465,-23.45218 9.48249,-27.86274 39.12101,-10.61353 19.4319,49.38706 68.26656,71.53825 z"
           id="path3863"
           inkscape:connector-curvature="0"
           sodipodi:nodetypes="ssssss" />
        <path
           style="fill:#ffccaa;fill-opacity:1;stroke:none"
           d="m -731.42858,358.07646 c 0,48.91665 -19.65478,45.71429 -85.71429,65.71429 -46.81796,14.17448 -91.42856,-16.79764 -91.42856,-65.71429 0,-48.91665 33.94049,-65.71429 82.85713,-65.71429 21.80887,0 36.06247,10.73937 51.49596,23.8104 19.18336,16.24691 42.78976,14.79611 42.78976,41.90389 z"
           id="path3829"
           inkscape:connector-curvature="0"
           sodipodi:nodetypes="ssssss" />
        <path
           style="fill:#ffe6d5;fill-opacity:1;stroke:none"
           d="m -785.7143,337.17062 c 0,14.82044 -6.98715,-24.42313 -47.70407,-20.28973 -40.35339,4.09651 -49.43877,33.80115 -49.43877,18.9807 10.40816,-11.84857 7.19996,-15.41535 18.50566,-20.67558 9.84621,-4.58117 10.2447,-11.39526 29.19842,-11.39526 23.65768,0 23.89641,7.98301 37.38655,14.28875 9.72755,4.54697 12.05221,12.88177 12.05221,19.09112 z"
           id="path3836"
           inkscape:connector-curvature="0"
           sodipodi:nodetypes="cscsssc" />
        <path
           sodipodi:type="arc"
           style="fill:#ffe6d5;fill-opacity:1;stroke:none"
           id="path3834"
           sodipodi:cx="305.71429"
           sodipodi:cy="695.2193"
           sodipodi:rx="105.71429"
           sodipodi:ry="34.285713"
           d="m 411.42858,695.2193 c 0,18.93548 -47.3299,34.28571 -105.71429,34.28571 -58.38438,0 -105.71428,-15.35023 -105.71428,-34.28571 0,-18.93548 47.3299,-34.28571 105.71428,-34.28571 58.38439,0 105.71429,15.35023 105.71429,34.28571 z"
           transform="matrix(0.24324325,0,0,0.41666665,-902.93436,91.258886)" />
        <path
           style="fill:#d38d5f;fill-opacity:1;stroke:none"
           d="m -863.49206,337.89827 c 0,0 6.85053,-10.2675 11.76992,-12.36775 17.89481,-7.63985 18.5541,2.35026 27.8068,3.76662 5.88812,0.90132 12.28543,-0.0786 17.62963,3.01039 6.6625,3.85088 16.10922,18.26138 16.10922,18.26138 l 13.03363,30.33502 c 0,0 -26.91037,-14.4702 -39.58723,-16.94525 -11.36074,-2.21808 -28.71988,2.09616 -28.71988,2.09616 l -28.83573,23.45022 c 0,0 4.58818,-16.46235 9.21041,-22.86987 6.12303,-8.48796 14.21991,-15.9718 23.27467,-18.8821 11.57714,-3.72104 35.87469,3.04687 35.87469,3.04687 0,0 -18.72597,-10.64428 -28.80959,-12.82963 -9.43176,-2.04408 -28.75654,-0.072 -28.75654,-0.072 z"
           id="path3832"
           inkscape:connector-curvature="0"
           sodipodi:nodetypes="csssccsccsscsc" />
        <path
           style="fill:#a05a2c;fill-opacity:1;stroke:none"
           d="m -700,255.21933 165.71428,28.57143 11.42857,54.28572 -185.71427,-25.71429 z"
           id="rect3841"
           inkscape:connector-curvature="0"
           sodipodi:nodetypes="ccccc" />
        <path
           style="fill:#a05a2c;fill-opacity:1;stroke:none"
           d="m -387.14286,282.36218 -82.85713,2.85715 2.85714,54.28572 88.57142,-20.00001 z"
           id="rect3841-8"
           inkscape:connector-curvature="0"
           sodipodi:nodetypes="ccccc" />
        <path
           style="fill:#ffccaa;fill-opacity:1;stroke:none"
           d="m -434.28572,544.90876 c 0,18.72965 -18.10632,41.73912 -55.71428,41.73912 -37.60796,0 -92.85714,-28.22685 -92.85714,-46.95651 0,-18.72966 42.86823,-13.04348 80.47619,-13.04348 37.60796,0 68.09523,-0.46879 68.09523,18.26087 z"
           id="path3919"
           inkscape:connector-curvature="0"
           sodipodi:nodetypes="sssss" />
        <path
           style="fill:#a05a2c;fill-opacity:1;stroke:url(#linearGradient3998)"
           d="m -731.42858,206.6479 c 0,0 116.08638,-10.33873 147.19059,1.08814 27.19757,9.99167 58.5237,53.19758 58.5237,53.19758 0,0 27.29598,-32.56281 39.72603,-38.82583 19.64657,-9.89915 51.70255,7.39726 51.70255,7.39726 L -554.14447,168.0219 z"
           id="path3983"
           inkscape:connector-curvature="0"
           sodipodi:nodetypes="cscsccc" />
        <path
           sodipodi:type="arc"
           style="fill:#ffccaa;fill-opacity:1;stroke:none"
           id="path4000"
           sodipodi:cx="458.57144"
           sodipodi:cy="432.36218"
           sodipodi:rx="32.857143"
           sodipodi:ry="14.285714"
           d="m 491.42859,432.36218 c 0,7.88978 -14.71065,14.28572 -32.85715,14.28572 -18.1465,0 -32.85714,-6.39594 -32.85714,-14.28572 0,-7.88978 14.71064,-14.28571 32.85714,-14.28571 18.1465,0 32.85715,6.39593 32.85715,14.28571 z"
           transform="matrix(1.173913,0,0,1.2,-1014.0373,-63.615294)" />
        <path
           style="fill:#2b1100;fill-opacity:1;stroke:none"
           d="m -448.57142,529.20108 c 0,0 2.62854,9.50271 -4.23888,21.8235 -7.5078,13.4697 -28.75992,14.60053 -40.04684,14.60053 -26.03628,0 -61.42857,-21.69297 -61.42857,-34.19132 0,-12.49834 26.82086,-5.8468 52.85714,-5.8468 26.03629,0 52.85715,3.61409 52.85715,3.61409 z"
           id="path3919-2"
           inkscape:connector-curvature="0"
           sodipodi:nodetypes="csscsc" />
        <path
           style="fill:#ffffff;fill-opacity:1;stroke:none"
           d="m -464.37328,526.79854 c 0,0 1.78,6.90497 -2.87051,15.85763 -5.08417,9.7875 -19.47578,10.60919 -27.11911,10.60919 -17.63137,0 -41.59849,-15.76277 -41.59849,-24.84446 0,-9.08168 18.16268,-4.24846 35.79405,-4.24846 17.63137,0 35.79406,2.6261 35.79406,2.6261 z"
           id="path3919-2-1"
           inkscape:connector-curvature="0"
           sodipodi:nodetypes="csscsc" />
      </g>
    </g>
    <path
       style="fill:#ffccaa;fill-opacity:1;stroke:none"
       d="m -661.45382,479.11045 c -9.22759,31.82637 -89.65891,107.87111 -122.24302,98.4238 -32.5842,-9.4473 -4.9822,-100.80914 4.2454,-132.63551 9.2276,-31.82637 43.12273,-49.96819 75.70686,-40.52089 32.58415,9.4473 51.51836,42.90623 42.29076,74.7326 z"
       id="path3048"
       inkscape:connector-curvature="0"
       sodipodi:nodetypes="sssss"
       inkscape:transform-center-x="25.714286"
       inkscape:transform-center-y="54.285714" />
    <path
       style="fill:#ffccaa;fill-opacity:1;stroke:none"
       d="m -720.89611,548.78626 c 11.2699,21.5522 8.09718,102.58384 -13.45967,114.05634 -21.55688,11.4725 -53.33476,-50.95874 -64.60466,-72.51074 -11.2699,-21.5521 -2.9306,-48.3238 18.6263,-59.79631 21.55685,-11.47251 48.16817,-3.30137 59.43803,18.25071 z"
       id="path3048-1"
       inkscape:connector-curvature="0"
       sodipodi:nodetypes="sssss"
       inkscape:transform-center-y="42.857143" />
    <path
       style="fill:#a05a2c;fill-opacity:1;stroke:none"
       d="m -1697.7465,1271.1605 c -0.2115,-10.7689 -0.058,-12.0024 2.8012,-31.0953 1.906,-12.7264 132.4188,-13.4448 203.5936,-27.2474 123.957,-24.038 268.968,-61.263 330.878,-62.4783 117.8737,-2.3136 158.2215,52.0093 159.4419,114.1845 1.22033,62.1751 -37.1488,108.6581 -155.0225,110.9717 -66.1886,1.2991 -234.595,-74.5143 -366.2096,-81.9792 -81.514,-4.6234 -132.6109,9.2663 -154.6889,2.1344 -23.3565,-7.5448 -20.6472,-17.02 -20.7937,-24.4904 z"
       id="path4077"
       inkscape:connector-curvature="0"
       sodipodi:nodetypes="sssssssss" />
    <g
       id="g5731"
       transform="translate(25.35284,0.2897289)">
      <path
         sodipodi:nodetypes="sssssssss"
         inkscape:connector-curvature="0"
         id="path4077-1"
         d="m -876.91029,1186.3469 c -0.2115,-10.7689 -0.058,-12.0024 2.8012,-31.0953 1.906,-12.7264 132.4188,-13.4448 203.5936,-27.2474 123.957,-24.038 268.968,-61.263 330.87797,-62.4783 117.8738,-2.3136 158.2216,52.0093 159.442,114.1845 1.2203,62.1751 -37.1488,108.6581 -155.0226,110.9717 -66.18857,1.2991 -234.59497,-74.5143 -366.20957,-81.9792 -81.514,-4.6234 -132.6109,9.2663 -154.6889,2.1344 -23.3565,-7.5448 -20.6472,-17.02 -20.7937,-24.4904 z"
         style="fill:#a05a2c;fill-opacity:1;stroke:none" />
      <path
         inkscape:transform-center-x="-0.36541454"
         sodipodi:nodetypes="scss"
         inkscape:transform-center-y="-6.8231067"
         inkscape:connector-curvature="0"
         id="path4142"
         d="m -403.69715,1093.5606 c -9.48633,-17.0502 22.96458,-53.625 22.96458,-53.625 0,0 32.41114,31.5232 25.73347,48.5482 -6.96571,17.7595 -39.44127,21.7145 -48.69805,5.0768 z"
         style="fill:#9b9b9b;fill-opacity:1;stroke:none" />
      <path
         inkscape:transform-center-x="69.42481"
         sodipodi:nodetypes="scss"
         inkscape:transform-center-y="-26.968379"
         inkscape:connector-curvature="0"
         id="path4142-4"
         d="m -229.75448,1113.4353 c 13.42072,-18.8193 67.70238,-12.8944 67.70238,-12.8944 0,0 -17.63228,47.8338 -38.83061,52.4652 -22.11272,4.8312 -41.96777,-21.2069 -28.87177,-39.5708 z"
         style="fill:#9b9b9b;fill-opacity:1;stroke:none" />
      <path
         inkscape:transform-center-x="-1.0186699"
         sodipodi:nodetypes="scss"
         inkscape:transform-center-y="0.42888355"
         inkscape:connector-curvature="0"
         id="path4142-6"
         d="m -195.31475,1229.901 c 12.43648,4.2863 15.8659,35.9145 15.8659,35.9145 0,0 -29.54162,-1.6057 -34.84871,-12.7474 -5.53611,-11.6223 6.8472,-27.3497 18.98281,-23.1671 z"
         style="fill:#9b9b9b;fill-opacity:1;stroke:none" />
      <path
         inkscape:transform-center-x="1.0981519"
         sodipodi:nodetypes="scss"
         inkscape:transform-center-y="-4.6565324"
         inkscape:connector-curvature="0"
         id="path4142-0"
         d="m -329.31894,1149.7457 c -4.87593,-14.9639 35.66719,-33.8189 35.66719,-33.8189 0,0 23.38085,31.3969 12.64942,42.2878 -11.19432,11.3605 -43.55868,6.1331 -48.31661,-8.4689 z"
         style="fill:#9b9b9b;fill-opacity:1;stroke:none" />
      <path
         inkscape:transform-center-x="1.0137902"
         sodipodi:nodetypes="scss"
         inkscape:transform-center-y="-5.1140034"
         inkscape:connector-curvature="0"
         id="path4142-0-3"
         d="m -313.66775,1082.0658 c -7.1261,-14.4148 40.73557,-37.0534 40.73557,-37.0534 0,0 30.96213,28.9839 18.76264,40.844 -12.72572,12.3716 -52.54454,10.2755 -59.49821,-3.7906 z"
         style="fill:#9b9b9b;fill-opacity:1;stroke:none" />
      <path
         sodipodi:nodetypes="scss"
         inkscape:connector-curvature="0"
         id="path4142-0-6"
         d="m -338.57651,1267.957 c 2.36296,18.3683 -36.40521,40.5325 -36.40521,40.5325 0,0 -16.71637,-38.8158 -5.66743,-51.8846 11.52555,-13.6323 39.76688,-6.5719 42.07264,11.3521 z"
         style="fill:#9b9b9b;fill-opacity:1;stroke:none" />
      <path
         sodipodi:nodetypes="scss"
         inkscape:connector-curvature="0"
         id="path4142-0-6-2"
         d="m -253.22755,1260.998 c 11.51543,10.3739 -16.60962,35.2457 -16.60962,35.2457 0,0 -36.17021,-18.4423 -31.51055,-29.602 4.86078,-11.6408 36.88332,-15.7667 48.12017,-5.6437 z"
         style="fill:#9b9b9b;fill-opacity:1;stroke:none" />
      <path
         sodipodi:nodetypes="scss"
         inkscape:connector-curvature="0"
         id="path4142-0-6-2-4"
         d="m -220.60667,1178.1233 c 11.21329,4.1837 -0.82443,33.3541 -0.82443,33.3541 0,0 -30.89773,-2.0463 -31.05527,-12.4012 -0.16417,-10.8015 20.93765,-25.0354 31.8797,-20.9529 z"
         style="fill:#9b9b9b;fill-opacity:1;stroke:none" />
      <path
         inkscape:transform-center-x="0.53294594"
         sodipodi:nodetypes="scss"
         inkscape:transform-center-y="4.6013951"
         inkscape:connector-curvature="0"
         id="path4142-6-5"
         d="m -304.55353,1200.947 c 6.70211,11.3191 -11.16353,37.6425 -11.16353,37.6425 0,0 -21.47309,-20.3517 -18.30327,-32.2788 3.30648,-12.4416 22.92683,-16.4088 29.4668,-5.3637 z"
         style="fill:#9b9b9b;fill-opacity:1;stroke:none" />
      <path
         sodipodi:nodetypes="scss"
         inkscape:connector-curvature="0"
         id="path4142-0-6-8"
         d="m -394.81119,1217.7467 c -3.59342,18.1677 -47.39384,26.8709 -47.39384,26.8709 0,0 -3.52235,-42.1152 11.10531,-50.998 15.25857,-9.2658 39.79508,6.3989 36.28853,24.1271 z"
         style="fill:#9b9b9b;fill-opacity:1;stroke:none" />
    </g>
    <path
       style="fill:#a05a2c;fill-opacity:1;stroke:none"
       d="m -1724.3687,1770.6641 c -0.2115,-10.7689 -0.058,-12.0024 2.8012,-31.0953 1.906,-12.7264 132.4188,-13.4448 203.5936,-27.2474 123.957,-24.038 268.968,-61.263 330.878,-62.4783 117.8738,-2.3136 158.2216,52.0093 159.442,114.1845 1.2203,62.1751 -37.1488,108.6581 -155.0226,110.9717 -66.1886,1.2991 -234.595,-74.5143 -366.2096,-81.9792 -81.514,-4.6234 -132.6109,9.2663 -154.6889,2.1344 -23.3565,-7.5448 -20.6472,-17.02 -20.7937,-24.4904 z"
       id="path4077-7"
       inkscape:connector-curvature="0"
       sodipodi:nodetypes="sssssssss" />
    <g
       id="g3140"
       transform="translate(539.89961,989.25705)">
      <path
         sodipodi:nodetypes="sssscsssss"
         inkscape:connector-curvature="0"
         id="path3105"
         d="m -1542.5703,755.5851 c 0,86.1198 -69.8139,155.9337 -155.9337,155.9337 -86.1198,0 -155.9338,-69.8139 -155.9338,-155.9337 0,-23.1323 29.0547,-87.6962 37.8478,-142.9115 9.6036,-60.3052 -26.5589,-101.6199 -5.1423,-141.1782 8.423,-15.558 47.7849,64.3668 61.9992,61.57 27.8918,-5.4879 25.3633,-101.0848 47.8154,-101.0848 25.686,0 36.8061,126.6455 58.5899,156.0687 14.1452,19.1057 31.2507,-129.771 47.1025,-102.7437 24.5276,41.8195 63.655,226.5246 63.655,270.2795 z"
         style="fill:#ff0000" />
      <path
         sodipodi:nodetypes="sssss"
         inkscape:connector-curvature="0"
         id="path3103"
         d="m -1562.6908,755.5852 c 0,62.0433 -60.0057,112.3393 -125.753,112.3393 -65.7474,0 -68.745,10.0654 -125.753,-108.9859 -26.7959,-55.9586 53.2988,-85.5121 119.0462,-85.5121 65.7473,0 132.4598,20.1153 132.4598,82.1587 z"
         style="fill:#ffcc00" />
    </g>
    <path
       style="fill:#ffccaa;fill-opacity:1;stroke:none"
       d="m -619.2783,657.60466 c 23.5353,31.72893 -10.65971,66.22206 -43.86574,89.07547 -33.20599,22.85339 -54.02392,32.42041 -77.55923,0.69147 -13.45028,-18.13292 -15.0387,-48.6705 -16.164,-73.34268 -0.84374,-18.49913 -5.73447,-32.45677 8.49446,-42.24955 14.93988,-10.28205 32.55098,-3.01524 55.3282,0.53786 27.84845,4.34418 60.81991,7.83377 73.76631,25.28743 z"
       id="path3069"
       inkscape:connector-curvature="0"
       sodipodi:nodetypes="sssssss"
       inkscape:transform-center-x="-44.028017"
       inkscape:transform-center-y="38.976806" />
    <path
       style="fill:#ffccaa;fill-opacity:1;stroke:none"
       d="m -612.98715,805.75037 c -3.18239,12.34256 -21.44196,35.60457 -41.28932,48.66225 -18.17433,11.95703 -31.49354,24.77518 -50.91954,10.66042 -15.16576,-11.01924 4.04172,-18.43266 3.48671,-46.50141 -0.38851,-19.64767 -7.65731,-37.68911 -5.54222,-45.89216 6.09662,-23.64494 26.59588,-32.17286 54.59911,-24.19221 28.00311,7.98072 45.76188,33.61828 39.66526,57.26311 z"
       id="path3048-7-4"
       inkscape:connector-curvature="0"
       sodipodi:nodetypes="sssssss"
       inkscape:transform-center-y="32.14596"
       inkscape:transform-center-x="5.6456821" />
    <g
       id="g3226"
       inkscape:transform-center-x="-65.714286"
       inkscape:transform-center-y="28.571429"
       transform="translate(-8.571429,-551.42857)">
      <path
         sodipodi:nodetypes="sssssss"
         inkscape:connector-curvature="0"
         id="path3108"
         d="m -574.28572,1470.9336 c 0,22.8803 -5.41112,24.2857 -61.42857,24.2857 -31.47074,0 -71.02247,-0.1399 -89.62654,-9.3276 -14.5109,-7.1663 -11.80204,-22.0748 -11.80204,-32.1009 0,-9.7578 19.68773,-47.2991 44.93503,-57.2355 19.43006,-7.647 35.79434,35.8069 59.35069,41.5212 54.43863,13.2057 58.57143,9.9767 58.57143,32.8571 z"
         style="fill:#ffccaa;fill-opacity:1;stroke:none" />
      <path
         sodipodi:nodetypes="sssss"
         inkscape:connector-curvature="0"
         id="path3111"
         d="m -514.28569,1466.6479 c 0,15.7795 -28.99636,28.5714 -47.14286,28.5714 -18.1465,0 -41.42857,4.351 -41.42857,-11.4285 0,-15.7796 37.56778,-54.2858 55.71428,-54.2858 18.1465,0 32.85715,21.3633 32.85715,37.1429 z"
         style="fill:#ffccaa;fill-opacity:1;stroke:none" />
      <path
         transform="matrix(1.1176471,0,0,1.2222222,61.176467,-316.08048)"
         d="m -519.99999,1448.0764 c 0,7.1008 -10.87309,12.8572 -24.28572,12.8572 -13.41263,0 -24.28571,-5.7564 -24.28571,-12.8572 0,-7.1008 10.87308,-12.8571 24.28571,-12.8571 13.41263,0 24.28572,5.7563 24.28572,12.8571 z"
         sodipodi:ry="12.857142"
         sodipodi:rx="24.285715"
         sodipodi:cy="1448.0764"
         sodipodi:cx="-544.28571"
         id="path3116"
         style="fill:#e9ddaf;fill-opacity:1;stroke:none"
         sodipodi:type="arc" />
    </g>
    <path
       style="fill:#eaae86;fill-opacity:1;stroke:none"
       d=""
       id="path3158"
       inkscape:connector-curvature="0" />
    <path
       style="fill:#a05a2c;fill-opacity:1;stroke:none"
       d="m -863.82844,1732.0998 c -0.2115,-10.7689 -0.058,-12.0024 2.8012,-31.0953 1.906,-12.7264 132.4188,-13.4448 203.5936,-27.2474 123.957,-24.038 268.968,-61.263 330.878,-62.4783 117.8738,-2.3136 158.2216,52.0093 159.442,114.1845 1.2203,62.1751 -37.1488,108.6581 -155.0226,110.9717 -66.1886,1.2991 -234.595,-74.5143 -366.2096,-81.9792 -81.514,-4.6234 -132.6109,9.2663 -154.6889,2.1344 -23.3565,-7.5448 -20.6472,-17.02 -20.7937,-24.4904 z"
       id="path4077-7-1"
       inkscape:connector-curvature="0"
       sodipodi:nodetypes="sssssssss" />
    <path
       style="fill:#00aad4"
       d="m -258.97223,1844.3281 c -64.8008,27.418 -139.559,-2.8869 -166.97689,-67.6878 -27.41791,-64.8009 2.88695,-139.5591 67.68786,-166.977 17.40591,-7.3646 75.23717,-6.0576 119.58339,-17.0201 48.43417,-11.9731 68.00843,-52.3368 104.59248,-48.8161 14.38824,1.3847 -33.21959,56.4482 -26.58973,66.2534 13.00927,19.24 84.1362,-13.0977 91.28426,3.7964 8.17764,19.3274 -83.57656,68.0147 -98.78074,93.7735 -9.8727,16.7262 107.59551,-17.8006 92.30552,2.7318 -23.65825,31.7699 -150.18275,120.0157 -183.10615,133.9459 z"
       id="path3105-4"
       inkscape:connector-curvature="0"
       sodipodi:nodetypes="sssscsssss" />
    <path
       style="fill:#55ddff"
       d="m -194.89812,1694.3768 c 11.27185,49.4223 -27.38968,100.3885 -79.76244,112.3333 -52.37284,11.9448 -52.93201,20.5073 -119.97211,-63.9692 -31.51138,-39.7071 26.92101,-77.8001 79.29385,-89.7449 52.37276,-11.9447 109.16886,-8.0415 120.4407,41.3808 z"
       id="path3103-0"
       inkscape:connector-curvature="0"
       sodipodi:nodetypes="sssss" />
    <path
       style="fill:#eaae86;fill-opacity:1;stroke:none;filter:url(#filter4355)"
       d="m 349.8921,563.57934 c -30.79347,-15.8047 -77.40817,-61.93516 -87.01062,-86.10675 -2.18496,-5.50004 -3.15921,-15.75612 -2.38433,-25.10015 2.52327,-30.42735 27.29883,-52.74257 58.55764,-52.74257 30.00673,0 49.16628,16.1016 59.44233,49.95506 16.51953,54.42198 21.20461,99.76024 11.79314,114.12397 -6.39602,9.76155 -21.21919,9.71401 -40.39816,-0.12956 z"
       id="path3192-6"
       inkscape:connector-curvature="0"
       inkscape:transform-center-x="-28.571429"
       inkscape:transform-center-y="54.285714" />
    <path
       style="fill:#eaae86;fill-opacity:1;stroke:none;filter:url(#filter4405)"
       d="m 441.82415,722.40321 c -23.89302,11.5169 -70.59232,19.29305 -90.77228,15.11496 -27.10881,-5.61272 -38.41466,-23.12972 -31.38489,-48.62699 4.37494,-15.86823 43.28925,-82.97476 51.08643,-88.09706 16.40197,-10.77515 24.15628,-6.85166 61.44302,31.08863 37.57734,38.23598 41.50409,75.15549 9.62772,90.52046 z"
       id="path3188-1"
       inkscape:connector-curvature="0"
       inkscape:transform-center-x="-6.1627466"
       inkscape:transform-center-y="45.516099" />
    <path
       style="fill:#eaae86;fill-opacity:1;stroke:none;filter:url(#filter4415)"
       d="m 374.86122,628.24882 c -17.44019,-9.07926 -46.88765,-51.29726 -53.92011,-77.30378 -2.01995,-7.46991 -1.81883,-17.40533 0.51016,-25.20289 5.03905,-16.87091 22.99461,-29.8785 40.06625,-29.02527 23.96891,1.19793 41.48212,20.17234 42.54752,46.09745 0.98188,23.89283 -2.41986,65.76397 -6.05403,74.51759 -4.91696,11.84341 -13.54993,15.91452 -23.14979,10.9169 z"
       id="path3190-8"
       inkscape:connector-curvature="0"
       inkscape:transform-center-y="39.644314"
       inkscape:transform-center-x="-10.559074" />
    <g
       id="g4030-4"
       transform="matrix(0.83353737,0,0,1.1421005,755.18561,-300.27949)"
       inkscape:transform-center-y="-127.2626"
       style="filter:url(#filter4425)">
      <path
         sodipodi:nodetypes="sscssscs"
         inkscape:connector-curvature="0"
         id="rect3243-9"
         d="m -699.71423,590.89138 c 84.94163,-40.98262 67.37834,-42.87268 211.2305,28.43522 79.25225,39.28555 30.97737,121.27332 9.67291,184.96823 -45.54992,78.68485 -43.57813,113.2479 -116.54889,150.74936 -129.57879,66.59371 -339.54066,98.19521 -359.80379,87.03601 -24.89348,-13.7091 92.24663,-39.5346 161.33245,-103.37184 39.64378,-36.63196 49.97219,-103.50468 42.90018,-142.67347 -9.12156,-70.03436 -18.34221,-171.58278 51.21664,-205.14351 z"
         style="fill:url(#linearGradient4037-0);fill-opacity:1;stroke:none" />
      <path
         d="m -680.00001,782.36218 c 0,11.83468 -7.03552,21.42857 -15.71428,21.42857 -8.67876,0 -15.71429,-9.59389 -15.71429,-21.42857 0,-11.83467 7.03553,-21.42857 15.71429,-21.42857 8.67876,0 15.71428,9.5939 15.71428,21.42857 z"
         sodipodi:ry="21.428572"
         sodipodi:rx="15.714286"
         sodipodi:cy="782.36218"
         sodipodi:cx="-695.71429"
         id="path4022-6"
         style="fill:#a05a2c;fill-opacity:1;stroke:none"
         sodipodi:type="arc" />
      <path
         d="m -511.42857,743.79077 c 0,14.20161 -8.31471,25.71429 -18.57143,25.71429 -10.25672,0 -18.57143,-11.51268 -18.57143,-25.71429 0,-14.20161 8.31471,-25.71428 18.57143,-25.71428 10.25672,0 18.57143,11.51267 18.57143,25.71428 z"
         sodipodi:ry="25.714285"
         sodipodi:rx="18.571428"
         sodipodi:cy="743.79077"
         sodipodi:cx="-530"
         id="path4024-3"
         style="fill:#a05a2c;fill-opacity:1;stroke:none"
         sodipodi:type="arc" />
      <path
         transform="translate(-5.7142857,0)"
         d="m -477.14284,780.93359 c 0,6.31183 -6.39594,11.42858 -14.28572,11.42858 -7.88978,0 -14.28571,-5.11675 -14.28571,-11.42858 0,-6.31182 6.39593,-11.42857 14.28571,-11.42857 7.88978,0 14.28572,5.11675 14.28572,11.42857 z"
         sodipodi:ry="11.428572"
         sodipodi:rx="14.285714"
         sodipodi:cy="780.93359"
         sodipodi:cx="-491.42856"
         id="path4026-7"
         style="fill:#a05a2c;fill-opacity:1;stroke:none"
         sodipodi:type="arc" />
      <path
         d="m -514.2857,806.64789 c 0,7.88978 -6.39593,14.28571 -14.28571,14.28571 -7.88978,0 -14.28572,-6.39593 -14.28572,-14.28571 0,-7.88978 6.39594,-14.28572 14.28572,-14.28572 7.88978,0 14.28571,6.39594 14.28571,14.28572 z"
         sodipodi:ry="14.285714"
         sodipodi:rx="14.285714"
         sodipodi:cy="806.64789"
         sodipodi:cx="-528.57141"
         id="path4028-8"
         style="fill:#a05a2c;fill-opacity:1;stroke:none"
         sodipodi:type="arc" />
    </g>
    <g
       id="g3194-8"
       transform="matrix(0.9903979,-0.13824616,0.13824616,0.9903979,834.45993,-199.71871)"
       inkscape:transform-center-x="126.8946"
       inkscape:transform-center-y="-185.24381"
       style="filter:url(#filter4435)">
      <g
         id="g4043-2"
         inkscape:transform-center-x="104.83898"
         inkscape:transform-center-y="-228.23885"
         transform="matrix(0.99680504,-0.0798731,0.0798731,0.99680504,-6.3737823,-55.657567)">
        <path
           style="fill:#eaae86;fill-opacity:1;stroke:none"
           d="m -588.57142,540.93363 c 0,55.22847 -69.12252,122.85714 -111.42857,102.85714 -35.66441,-16.86019 -42.85715,-56.2001 -42.85715,-111.42857 0,-55.22848 43.40824,-91.42857 82.85715,-91.42857 39.44891,0 71.42857,44.77152 71.42857,100 z"
           id="path3913-9"
           inkscape:connector-curvature="0"
           sodipodi:nodetypes="sssss" />
        <path
           style="fill:#925127;fill-opacity:0.88627451;stroke:none"
           d="m -1122.5875,398.78137 c -11.7357,-43.56281 -60.2843,-95.04633 -5.0159,-151.07766 19.3686,-19.63592 32.183,-33.23742 68.4213,-49.9433 15.4177,-7.10755 45.2944,-19.91999 70.89803,-30.2008 46.99888,-18.87182 223.48415,58.47584 223.48415,58.47584 l -9.9208,82.70643 c 0,0 -34.34511,5.14391 -63.95313,26.08849 -22.5893,15.97956 -77.4243,10.15366 -97.90238,38.95421 -10.23437,14.3937 -25.62134,44.21879 -24.7305,77.48226 1.63122,60.90914 40.37654,167.13308 40.37654,167.13308 0,0 -180.93451,-142.69616 -201.65731,-219.61855 z"
           id="rect4048-1"
           inkscape:connector-curvature="0"
           sodipodi:nodetypes="ssssccssscs" />
        <a
           id="a3989-3"
           transform="translate(-957.14286,14.285715)">
          <path
             sodipodi:nodetypes="sscssssss"
             inkscape:connector-curvature="0"
             id="path3915-5"
             d="m 569.16944,353.79074 c 0,111.24593 -118.06849,201.42857 -280.598,201.42857 -61.16906,0 -87.18191,-15.80286 -137.6719,-19.4919 C 110.21133,532.75453 97.548001,511.38388 69.969948,479.15048 38.05019,441.84247 -5.7142639,391.01097 -5.7142639,353.79074 c 0,-38.65742 46.7072819,-74.77139 74.2898149,-105.44159 51.792769,-57.59059 75.616069,-105.05119 202.886259,-95.98698 108.91657,7.75706 244.18597,35.58025 295.86214,92.54421 27.22307,30.00867 1.84549,70.50052 1.84549,108.88436 z"
             style="fill:url(#linearGradient3981-0);fill-opacity:1;stroke:none"
             transform="matrix(0.83495146,0,0,0.94326243,79.056869,-17.069623)" />
        </a>
        <path
           sodipodi:type="arc"
           style="fill:#ffccaa;stroke:none"
           id="path2987-9"
           sodipodi:cx="474.28571"
           sodipodi:cy="555.2193"
           sodipodi:rx="242.85715"
           sodipodi:ry="242.85715"
           d="m 717.14285,555.2193 c 0,134.1263 -108.73085,242.85715 -242.85714,242.85715 -134.1263,0 -242.85715,-108.73085 -242.85715,-242.85715 0,-134.1263 108.73085,-242.85715 242.85715,-242.85715 134.12629,0 242.85714,108.73085 242.85714,242.85715 z"
           transform="matrix(0.77552183,0,0,0.80137255,-947.58851,-66.527721)" />
        <path
           style="fill:#d38d5f;stroke:none"
           d="m -531.42857,370.9336 c 0,52.86154 -34.67392,84.28572 -84.14286,84.28572 -49.46892,0 -73.28571,0.004 -78.71428,-50.00001 -5.70164,-52.51972 26.53107,-121.42856 75.99999,-121.42856 49.46894,0 86.85715,34.28131 86.85715,87.14285 z"
           id="path2993-8"
           inkscape:connector-curvature="0"
           sodipodi:nodetypes="sssss" />
        <path
           sodipodi:type="arc"
           style="fill:#cccccc;stroke:none"
           id="path2989-1-40"
           sodipodi:cx="478.57144"
           sodipodi:cy="362.36218"
           sodipodi:rx="81.428574"
           sodipodi:ry="81.428574"
           d="m 560.00002,362.36218 c 0,44.97176 -36.45682,81.42858 -81.42858,81.42858 -44.97176,0 -81.42857,-36.45682 -81.42857,-81.42858 0,-44.97176 36.45681,-81.42857 81.42857,-81.42857 44.97176,0 81.42858,36.45681 81.42858,81.42857 z"
           transform="translate(-1084.2857,-1.4285713)" />
        <path
           sodipodi:type="arc"
           style="fill:#ffffff;stroke:none"
           id="path2989-7"
           sodipodi:cx="478.57144"
           sodipodi:cy="362.36218"
           sodipodi:rx="81.428574"
           sodipodi:ry="81.428574"
           d="m 560.00002,362.36218 c 0,44.97176 -36.45682,81.42858 -81.42858,81.42858 -44.97176,0 -81.42857,-36.45682 -81.42857,-81.42858 0,-44.97176 36.45681,-81.42857 81.42857,-81.42857 44.97176,0 81.42858,36.45681 81.42858,81.42857 z"
           transform="matrix(0.89473684,0,0,0.89473684,-1032.4812,29.571965)" />
        <path
           sodipodi:type="arc"
           style="fill:#338000;stroke:none"
           id="path3018-6"
           sodipodi:cx="354.28571"
           sodipodi:cy="235.21933"
           sodipodi:rx="48.57143"
           sodipodi:ry="48.57143"
           d="m 402.85714,235.21933 c 0,26.82526 -21.74617,48.57143 -48.57143,48.57143 -26.82526,0 -48.57143,-21.74617 -48.57143,-48.57143 0,-26.82526 21.74617,-48.57143 48.57143,-48.57143 26.82526,0 48.57143,21.74617 48.57143,48.57143 z"
           transform="translate(-951.42857,117.14286)" />
        <path
           sodipodi:type="arc"
           style="fill:#28220b;stroke:none"
           id="path3022-3"
           sodipodi:cx="354.28571"
           sodipodi:cy="235.21933"
           sodipodi:rx="34.285713"
           sodipodi:ry="34.285713"
           d="m 388.57142,235.21933 c 0,18.93548 -15.35024,34.28571 -34.28571,34.28571 -18.93548,0 -34.28572,-15.35023 -34.28572,-34.28571 0,-18.93548 15.35024,-34.28571 34.28572,-34.28571 18.93547,0 34.28571,15.35023 34.28571,34.28571 z"
           transform="translate(-951.42857,120.00001)" />
        <path
           sodipodi:type="arc"
           style="fill:#f4e3d7;stroke:none"
           id="path3024-6"
           sodipodi:cx="344.28571"
           sodipodi:cy="245.21933"
           sodipodi:rx="12.857142"
           sodipodi:ry="12.857142"
           d="m 357.14285,245.21933 c 0,7.1008 -5.75634,12.85714 -12.85714,12.85714 -7.10081,0 -12.85715,-5.75634 -12.85715,-12.85714 0,-7.1008 5.75634,-12.85714 12.85715,-12.85714 7.1008,0 12.85714,5.75634 12.85714,12.85714 z"
           transform="translate(-948.57143,125.71429)" />
        <path
           style="fill:#d38d5f;stroke:none"
           d="m -467.83442,375.35289 c 0,44.26616 13.80589,70.58072 33.50261,70.58072 19.6967,0 29.17967,0.003 31.34113,-41.86993 2.27019,-43.97992 -10.5637,-101.68407 -30.2604,-101.68407 -19.69673,0 -34.58334,28.70711 -34.58334,72.97328 z"
           id="path2993-7-1"
           inkscape:connector-curvature="0"
           sodipodi:nodetypes="sssss" />
        <path
           sodipodi:type="arc"
           style="fill:#cccccc;stroke:none"
           id="path2989-1-4-5"
           sodipodi:cx="478.57144"
           sodipodi:cy="362.36218"
           sodipodi:rx="81.428574"
           sodipodi:ry="81.428574"
           d="m 560.00002,362.36218 c 0,44.97176 -36.45682,81.42858 -81.42858,81.42858 -44.97176,0 -81.42857,-36.45682 -81.42857,-81.42858 0,-44.97176 36.45681,-81.42857 81.42857,-81.42857 44.97176,0 81.42858,36.45681 81.42858,81.42857 z"
           transform="matrix(0.32798786,0,0,0.83739837,-595.49017,63.537414)" />
        <path
           sodipodi:type="arc"
           style="fill:#ffffff;stroke:none"
           id="path2989-0-4"
           sodipodi:cx="478.57144"
           sodipodi:cy="362.36218"
           sodipodi:rx="81.428574"
           sodipodi:ry="81.428574"
           d="m 560.00002,362.36218 c 0,44.97176 -36.45682,81.42858 -81.42858,81.42858 -44.97176,0 -81.42857,-36.45682 -81.42857,-81.42858 0,-44.97176 36.45681,-81.42857 81.42857,-81.42857 44.97176,0 81.42858,36.45681 81.42858,81.42857 z"
           transform="matrix(0.29346282,0,0,0.74925117,-578.49892,89.497216)" />
        <path
           sodipodi:type="arc"
           style="fill:#338000;stroke:none"
           id="path3018-9-2"
           sodipodi:cx="354.28571"
           sodipodi:cy="235.21933"
           sodipodi:rx="48.57143"
           sodipodi:ry="48.57143"
           d="m 402.85714,235.21933 c 0,26.82526 -21.74617,48.57143 -48.57143,48.57143 -26.82526,0 -48.57143,-21.74617 -48.57143,-48.57143 0,-26.82526 21.74617,-48.57143 48.57143,-48.57143 26.82526,0 48.57143,21.74617 48.57143,48.57143 z"
           transform="matrix(0.39816329,0,0,0.83739837,-569.95975,162.82894)" />
        <path
           sodipodi:type="arc"
           style="fill:#28220b;stroke:none"
           id="path3022-4-0"
           sodipodi:cx="354.28571"
           sodipodi:cy="235.21933"
           sodipodi:rx="34.285713"
           sodipodi:ry="34.285713"
           d="m 388.57142,235.21933 c 0,18.93548 -15.35024,34.28571 -34.28571,34.28571 -18.93548,0 -34.28572,-15.35023 -34.28572,-34.28571 0,-18.93548 15.35024,-34.28571 34.28572,-34.28571 18.93547,0 34.28571,15.35023 34.28571,34.28571 z"
           transform="matrix(0.39816329,0,0,0.83739837,-569.95975,165.2215)" />
        <path
           sodipodi:type="arc"
           style="fill:#f4e3d7;stroke:none"
           id="path3024-8-9"
           sodipodi:cx="344.28571"
           sodipodi:cy="245.21933"
           sodipodi:rx="12.857142"
           sodipodi:ry="12.857142"
           d="m 357.14285,245.21933 c 0,7.1008 -5.75634,12.85714 -12.85714,12.85714 -7.10081,0 -12.85715,-5.75634 -12.85715,-12.85714 0,-7.1008 5.75634,-12.85714 12.85715,-12.85714 7.1008,0 12.85714,5.75634 12.85714,12.85714 z"
           transform="matrix(0.39816329,0,0,0.83739837,-568.82214,170.00664)" />
        <path
           style="fill:url(#linearGradient3958-0);fill-opacity:1;stroke:none"
           d="m -425.71429,585.21936 c -18.28538,26.50918 -14.76845,44.23366 -34.87394,57.67023 -17.59299,11.75746 -57.29015,20.9012 -92.26892,20.9012 -18.30416,0 -60.36261,-11.60436 -83.25006,-29.86921 -70.83338,-56.52712 -129.60707,-176.84943 -129.60707,-214.4165 0,-24.40664 45.1634,44.94046 94.19424,66.59496 27.76442,12.26217 56.89594,19.00918 83.83458,14.82949 22.37326,-3.47135 43.23393,-17.13874 60.5426,-17.13874 46.10828,0 86.8461,-16.18015 111.37232,7.12732 15.34324,14.58079 0.91745,78.55526 -9.94375,94.30125 z"
           id="path3917-7"
           inkscape:connector-curvature="0"
           sodipodi:nodetypes="sssscsssss" />
        <path
           style="fill:url(#linearGradient3911-2);fill-opacity:1;stroke:none"
           d="m -451.64646,431.55636 c 89.9121,40.78372 28.92941,76.68886 -11.45997,82.87559 -43.56684,6.67347 -102.20865,-13.75467 -91.06489,-60.20682 5.52965,-23.05001 20.07771,-47.71034 24.77581,-66.34428 3.34053,-13.2495 -6.77465,-23.45218 9.48249,-27.86274 39.12101,-10.61353 19.4319,49.38706 68.26656,71.53825 z"
           id="path3863-3"
           inkscape:connector-curvature="0"
           sodipodi:nodetypes="ssssss" />
        <path
           style="fill:#ffccaa;fill-opacity:1;stroke:none"
           d="m -731.42858,358.07646 c 0,48.91665 -19.65478,45.71429 -85.71429,65.71429 -46.81796,14.17448 -91.42856,-16.79764 -91.42856,-65.71429 0,-48.91665 33.94049,-65.71429 82.85713,-65.71429 21.80887,0 36.06247,10.73937 51.49596,23.8104 19.18336,16.24691 42.78976,14.79611 42.78976,41.90389 z"
           id="path3829-7"
           inkscape:connector-curvature="0"
           sodipodi:nodetypes="ssssss" />
        <path
           style="fill:#ffe6d5;fill-opacity:1;stroke:none"
           d="m -785.7143,337.17062 c 0,14.82044 -6.98715,-24.42313 -47.70407,-20.28973 -40.35339,4.09651 -49.43877,33.80115 -49.43877,18.9807 10.40816,-11.84857 7.19996,-15.41535 18.50566,-20.67558 9.84621,-4.58117 10.2447,-11.39526 29.19842,-11.39526 23.65768,0 23.89641,7.98301 37.38655,14.28875 9.72755,4.54697 12.05221,12.88177 12.05221,19.09112 z"
           id="path3836-2"
           inkscape:connector-curvature="0"
           sodipodi:nodetypes="cscsssc" />
        <path
           sodipodi:type="arc"
           style="fill:#ffe6d5;fill-opacity:1;stroke:none"
           id="path3834-6"
           sodipodi:cx="305.71429"
           sodipodi:cy="695.2193"
           sodipodi:rx="105.71429"
           sodipodi:ry="34.285713"
           d="m 411.42858,695.2193 c 0,18.93548 -47.3299,34.28571 -105.71429,34.28571 -58.38438,0 -105.71428,-15.35023 -105.71428,-34.28571 0,-18.93548 47.3299,-34.28571 105.71428,-34.28571 58.38439,0 105.71429,15.35023 105.71429,34.28571 z"
           transform="matrix(0.24324325,0,0,0.41666665,-902.93436,91.258886)" />
        <path
           style="fill:#d38d5f;fill-opacity:1;stroke:none"
           d="m -863.49206,337.89827 c 0,0 6.85053,-10.2675 11.76992,-12.36775 17.89481,-7.63985 18.5541,2.35026 27.8068,3.76662 5.88812,0.90132 12.28543,-0.0786 17.62963,3.01039 6.6625,3.85088 16.10922,18.26138 16.10922,18.26138 l 13.03363,30.33502 c 0,0 -26.91037,-14.4702 -39.58723,-16.94525 -11.36074,-2.21808 -28.71988,2.09616 -28.71988,2.09616 l -28.83573,23.45022 c 0,0 4.58818,-16.46235 9.21041,-22.86987 6.12303,-8.48796 14.21991,-15.9718 23.27467,-18.8821 11.57714,-3.72104 35.87469,3.04687 35.87469,3.04687 0,0 -18.72597,-10.64428 -28.80959,-12.82963 -9.43176,-2.04408 -28.75654,-0.072 -28.75654,-0.072 z"
           id="path3832-0"
           inkscape:connector-curvature="0"
           sodipodi:nodetypes="csssccsccsscsc" />
        <path
           style="fill:#a05a2c;fill-opacity:1;stroke:none"
           d="m -700,255.21933 165.71428,28.57143 11.42857,54.28572 -185.71427,-25.71429 z"
           id="rect3841-1"
           inkscape:connector-curvature="0"
           sodipodi:nodetypes="ccccc" />
        <path
           style="fill:#a05a2c;fill-opacity:1;stroke:none"
           d="m -387.14286,282.36218 -82.85713,2.85715 2.85714,54.28572 88.57142,-20.00001 z"
           id="rect3841-8-6"
           inkscape:connector-curvature="0"
           sodipodi:nodetypes="ccccc" />
        <path
           style="fill:#ffccaa;fill-opacity:1;stroke:none"
           d="m -434.28572,544.90876 c 0,18.72965 -18.10632,41.73912 -55.71428,41.73912 -37.60796,0 -92.85714,-28.22685 -92.85714,-46.95651 0,-18.72966 42.86823,-13.04348 80.47619,-13.04348 37.60796,0 68.09523,-0.46879 68.09523,18.26087 z"
           id="path3919-5"
           inkscape:connector-curvature="0"
           sodipodi:nodetypes="sssss" />
        <path
           style="fill:#a05a2c;fill-opacity:1;stroke:url(#linearGradient3998-5)"
           d="m -731.42858,206.6479 c 0,0 116.08638,-10.33873 147.19059,1.08814 27.19757,9.99167 58.5237,53.19758 58.5237,53.19758 0,0 27.29598,-32.56281 39.72603,-38.82583 19.64657,-9.89915 51.70255,7.39726 51.70255,7.39726 L -554.14447,168.0219 z"
           id="path3983-7"
           inkscape:connector-curvature="0"
           sodipodi:nodetypes="cscsccc" />
        <path
           sodipodi:type="arc"
           style="fill:#ffccaa;fill-opacity:1;stroke:none"
           id="path4000-5"
           sodipodi:cx="458.57144"
           sodipodi:cy="432.36218"
           sodipodi:rx="32.857143"
           sodipodi:ry="14.285714"
           d="m 491.42859,432.36218 c 0,7.88978 -14.71065,14.28572 -32.85715,14.28572 -18.1465,0 -32.85714,-6.39594 -32.85714,-14.28572 0,-7.88978 14.71064,-14.28571 32.85714,-14.28571 18.1465,0 32.85715,6.39593 32.85715,14.28571 z"
           transform="matrix(1.173913,0,0,1.2,-1014.0373,-63.615294)" />
        <path
           style="fill:#2b1100;fill-opacity:1;stroke:none"
           d="m -448.57142,529.20108 c 0,0 2.62854,9.50271 -4.23888,21.8235 -7.5078,13.4697 -28.75992,14.60053 -40.04684,14.60053 -26.03628,0 -61.42857,-21.69297 -61.42857,-34.19132 0,-12.49834 26.82086,-5.8468 52.85714,-5.8468 26.03629,0 52.85715,3.61409 52.85715,3.61409 z"
           id="path3919-2-4"
           inkscape:connector-curvature="0"
           sodipodi:nodetypes="csscsc" />
        <path
           style="fill:#ffffff;fill-opacity:1;stroke:none"
           d="m -464.37328,526.79854 c 0,0 1.78,6.90497 -2.87051,15.85763 -5.08417,9.7875 -19.47578,10.60919 -27.11911,10.60919 -17.63137,0 -41.59849,-15.76277 -41.59849,-24.84446 0,-9.08168 18.16268,-4.24846 35.79405,-4.24846 17.63137,0 35.79406,2.6261 35.79406,2.6261 z"
           id="path3919-2-1-1"
           inkscape:connector-curvature="0"
           sodipodi:nodetypes="csscsc" />
      </g>
    </g>
    <path
       style="fill:#ffccaa;fill-opacity:1;stroke:none;filter:url(#filter4445)"
       d="m 209.15256,488.09241 c -9.22759,31.82637 -89.65891,107.87111 -122.243022,98.4238 -32.5842,-9.4473 -4.9822,-100.80914 4.2454,-132.63551 9.227602,-31.82637 43.122732,-49.96819 75.706862,-40.52089 32.58415,9.4473 51.51836,42.90623 42.29076,74.7326 z"
       id="path3048-2"
       inkscape:connector-curvature="0"
       sodipodi:nodetypes="sssss"
       inkscape:transform-center-x="25.714286"
       inkscape:transform-center-y="54.285714" />
    <path
       style="fill:#ffccaa;fill-opacity:1;stroke:none;filter:url(#filter4455)"
       d="m 149.71027,557.76822 c 11.2699,21.5522 8.09718,102.58384 -13.45967,114.05634 -21.55688,11.4725 -53.334762,-50.95874 -64.604662,-72.51074 -11.2699,-21.5521 -2.9306,-48.3238 18.6263,-59.79631 21.556852,-11.47251 48.168172,-3.30137 59.438032,18.25071 z"
       id="path3048-1-0"
       inkscape:connector-curvature="0"
       sodipodi:nodetypes="sssss"
       inkscape:transform-center-y="42.857143" />
    <path
       style="fill:#ffccaa;fill-opacity:1;stroke:none;filter:url(#filter4465)"
       d="m 251.32808,666.58662 c 23.5353,31.72893 -10.65971,66.22206 -43.86574,89.07547 -33.20599,22.85339 -54.02392,32.42041 -77.55923,0.69147 -13.45028,-18.13292 -15.0387,-48.6705 -16.164,-73.34268 -0.84374,-18.49913 -5.73447,-32.45677 8.49446,-42.24955 14.93988,-10.28205 32.55098,-3.01524 55.3282,0.53786 27.84845,4.34418 60.81991,7.83377 73.76631,25.28743 z"
       id="path3069-0"
       inkscape:connector-curvature="0"
       sodipodi:nodetypes="sssssss"
       inkscape:transform-center-x="-44.028017"
       inkscape:transform-center-y="38.976806" />
  </g>
</svg>
